Label mutations using phylogenetic forest data — label_mutations • rRACES
…
# filter germinal mutations
f_seq <- seq_results$mutations %>% dplyr::filter(classes!="germinal")

# label filtered mutations using phylogenetic forest data
labels <- label_mutations(f_seq, phylo_forest)
labels
#> # A tibble: 3,746 × 16
#>    chr    chr_pos ref   alt   causes classes   Sampling.occurrences
#>    <chr>    <int> <chr> <chr> <chr>  <chr>                    <int>
#>  1 22    16071677 T     C     SBS5   passenger                    7
#>  2 22    16073144 C     T     SBS5   passenger                    1
#>  3 22    16076443 C     A     SBS5   passenger                    2
#>  4 22    16117746 T     G     SBS5   passenger                    2
#>  5 22    16137844 T     C     SBS5   passenger                    1
#>  6 22    16144272 T     C     SBS5   passenger                    1
#>  7 22    16146123 C     T     SBS5   passenger                   11
#>  8 22    16156717 G     A     SBS5   passenger                    4
#>  9 22    16158283 A     G     SBS5   passenger                   10
#> 10 22    16161869 A     G     SBS5   passenger                    1
#> # ℹ 3,736 more rows
#> # ℹ 9 more variables: Sampling.coverage <int>, Sampling.VAF <dbl>,
#> #   cell_id <dbl>, ancestor <int>, mutant <chr>, epistate <chr>, sample <chr>,
#> #   birth_time <dbl>, label <chr>
…
