Get mutations-nodes map — muts_to_sticks • rRACES
…
muts_to_sticks(phylo_forest, seq_results, labels)
#> # A tibble: 916 × 20
#>    chr    chr_pos ref   alt   causes classes   Sampling.occurrences
#>    <chr>    <int> <chr> <chr> <chr>  <chr>                    <int>
#>  1 22    16066239 G     A     SBS1   passenger                    1
#>  2 22    16070145 G     T     SBS5   passenger                    1
#>  3 22    16076492 G     T     SBS5   passenger                   22
#>  4 22    16087282 G     A     SBS5   passenger                    1
#>  5 22    16088873 C     A     SBS5   passenger                    1
#>  6 22    16091480 C     T     SBS5   passenger                    2
#>  7 22    16095931 T     C     SBS5   passenger                    1
#>  8 22    16098576 G     A     SBS5   passenger                   16
#>  9 22    16100068 C     T     SBS1   passenger                    1
#> 10 22    16101939 A     G     SBS5   passenger                    1
#> # ℹ 906 more rows
#> # ℹ 13 more variables: Sampling.coverage <int>, Sampling.VAF <dbl>,
#> #   normal_sample.occurrences <int>, normal_sample.coverage <int>,
#> #   normal_sample.VAF <dbl>, id <chr>, cell_id <dbl>, ancestor <int>,
#> #   mutant <chr>, epistate <chr>, sample <chr>, birth_time <dbl>, obs <chr>
…
